mult/mult_32_TB.vcd
$date
	Mon Oct 20 10:05:46 2025
$end
$version
	Icarus Verilog
$end
$timescale
	1ps
$end
$scope module mult_TB $end
$scope module uut $end
$var wire 16 ! A [15:0] $end
$var wire 16 " B [15:0] $end
$var wire 1 # clk $end
$var wire 1 $ init $end
$var wire 1 % rst $end
$var wire 1 & w_z $end
$var wire 1 ' w_sh $end
$var wire 1 ( w_reset $end
$var wire 1 ) w_add $end
$var wire 16 * w_B [15:0] $end
$var wire 32 + w_A [31:0] $end
$var wire 32 , pp [31:0] $end
$var wire 1 - done $end
$scope module acc0 $end
$var wire 32 . A [31:0] $end
$var wire 1 # clk $end
$var wire 1 ( rst $end
$var wire 1 ) add $end
$var reg 32 / pp [31:0] $end
$upscope $end
$scope module comp0 $end
$var wire 1 & z $end
$var wire 16 0 B [15:0] $end
$var reg 1 1 tmp $end
$upscope $end
$scope module control0 $end
$var wire 1 # clk $end
$var wire 1 $ init $end
$var wire 1 2 lsb_B $end
$var wire 1 % rst $end
$var wire 1 & z $end
$var parameter 3 3 ADD $end
$var parameter 3 4 CHECK $end
$var parameter 3 5 END $end
$var parameter 3 6 SHIFT $end
$var parameter 3 7 START $end
$var reg 1 ) add $end
$var reg 4 8 count [3:0] $end
$var reg 1 - done $end
$var reg 1 ( reset $end
$var reg 1 ' sh $end
$var reg 3 9 state [2:0] $end
$upscope $end
$scope module lsr0 $end
$var wire 1 # clk $end
$var wire 16 : in_A [15:0] $end
$var wire 1 ( load $end
$var wire 1 ' shift $end
$var reg 31 ; s_A [30:0] $end
$upscope $end
$scope module rsr0 $end
$var wire 1 # clk $end
$var wire 16 < in_B [15:0] $end
$var wire 1 ( load $end
$var wire 1 ' shift $end
$var reg 16 = s_B [15:0] $end
$upscope $end
$upscope $end
$upscope $end
$enddefinitions $end
$comment Show the parameter values. $end
$dumpall
b0 7
b10 6
b100 5
b1 4
b11 3
$end
#0
$dumpvars
bx =
b1111111 <
bx ;
b11110111 :
b0 9
bx 8
x2
01
bx 0
b0 /
b0xxxxxxxxxxxxxxxxxxxxxxxxxxxxxxx .
0-
b0 ,
b0xxxxxxxxxxxxxxxxxxxxxxxxxxxxxxx +
bx *
0)
0(
0'
0&
x%
0$
0#
b1111111 "
b11110111 !
$end
#10000
b0 8
1(
1#
#20000
12
b11110111 +
b11110111 .
b11110111 ;
b1111111 *
b1111111 0
b1111111 =
1%
0#
#30000
1#
#40000
0%
0#
#50000
1#
#60000
0#
#70000
1$
1#
#80000
0#
#90000
b1 9
1#
#100000
0#
#110000
0$
b11 9
0(
1#
#120000
0#
#130000
b10 9
1)
1#
#140000
b11110111 ,
b11110111 /
0#
#150000
b1 9
0)
1'
1#
#160000
b111111 *
b111111 0
b111111 =
b111101110 +
b111101110 .
b111101110 ;
0#
#170000
b11 9
0'
1#
#180000
0#
#190000
b10 9
1)
1#
#200000
b1011100101 ,
b1011100101 /
0#
#210000
b1 9
0)
1'
1#
#220000
b1111011100 +
b1111011100 .
b1111011100 ;
b11111 *
b11111 0
b11111 =
0#
#230000
b11 9
0'
1#
#240000
0#
#250000
b10 9
1)
1#
#260000
b11011000001 ,
b11011000001 /
0#
#270000
b1 9
0)
1'
1#
#280000
b1111 *
b1111 0
b1111 =
b11110111000 +
b11110111000 .
b11110111000 ;
0#
#290000
b11 9
0'
1#
#300000
0#
#310000
b10 9
1)
1#
#320000
b111001111001 ,
b111001111001 /
0#
#330000
b1 9
0)
1'
1#
#340000
b111101110000 +
b111101110000 .
b111101110000 ;
b111 *
b111 0
b111 =
0#
#350000
b11 9
0'
1#
#360000
0#
#370000
b10 9
1)
1#
#380000
b1110111101001 ,
b1110111101001 /
0#
#390000
b1 9
0)
1'
1#
#400000
b11 *
b11 0
b11 =
b1111011100000 +
b1111011100000 .
b1111011100000 ;
0#
#410000
b11 9
0'
1#
#420000
0#
#430000
b10 9
1)
1#
#440000
b11110011001001 ,
b11110011001001 /
0#
#450000
b1 9
0)
1'
1#
#460000
b11110111000000 +
b11110111000000 .
b11110111000000 ;
b1 *
b1 0
b1 =
0#
#470000
b11 9
0'
1#
#480000
0#
#490000
b10 9
1)
1#
#500000
b111101010001001 ,
b111101010001001 /
0#
#510000
b1 9
0)
1'
1#
#520000
02
1&
11
b0 *
b0 0
b0 =
b111101110000000 +
b111101110000000 .
b111101110000000 ;
0#
#530000
b10 9
0'
1#
#540000
0#
#550000
b100 9
1'
1#
#560000
b1111011100000000 +
b1111011100000000 .
b1111011100000000 ;
0#
#570000
b1 8
0'
1-
1#
#580000
0#
#590000
b10 8
1#
#600000
0#
#610000
b11 8
1#
#620000
0#
#630000
b100 8
1#
#640000
0#
#650000
b101 8
1#
#660000
0#
#670000
b110 8
1#
#680000
0#
#690000
b111 8
1#
#700000
0#
#710000
b1000 8
1#
#720000
0#
#730000
b1001 8
1#
#740000
0#
#750000
b0 9
b1010 8
1#
#760000
0#
#770000
b0 8
1(
0-
1#
#780000
12
0&
01
b0 ,
b0 /
b11110111 +
b11110111 .
b11110111 ;
b1111111 *
b1111111 0
b1111111 =
0#
